<?xml version="1.0" encoding="utf-8"?>
<!-- Generator: Adobe Illustrator 19.1.0, SVG Export Plug-In . SVG Version: 6.00 Build 0)  -->
<svg version="1.1" id="Ebene_1" xmlns="http://www.w3.org/2000/svg" xmlns:xlink="http://www.w3.org/1999/xlink" x="0px" y="0px"
	 viewBox="0 0 514 58" style="enable-background:new 0 0 514 58;" xml:space="preserve">
<style type="text/css">
	.st0{fill:#E30613;}
	.st1{fill:#FFFFFF;}
</style>
<g>
	<path d="M45,10.2c0.5,0.3,1,0.5,1.7,0.5c1,0,1.8-0.5,1.8-1.6c0-1.5-3.6-1.7-3.6-3.8c0-1.2,1.1-2,2.5-2c0.4,0,1,0.1,1.5,0.3
		l-0.1,0.7C48.4,4.1,47.8,4,47.3,4c-0.8,0-1.7,0.3-1.7,1.3c0,1.6,3.6,1.6,3.6,3.9c0,1.6-1.4,2.2-2.6,2.2c-0.8,0-1.3-0.2-1.8-0.3
		L45,10.2z"/>
	<path d="M55.3,6.3C54.9,6.1,54.4,6,54,6c-1.4,0-2.1,1-2.1,2.4c0,1.3,0.8,2.4,2.1,2.4c0.4,0,0.9-0.1,1.3-0.3l0.1,0.7
		c-0.5,0.2-0.9,0.2-1.5,0.2c-1.8,0-2.7-1.4-2.7-3c0-1.8,1.1-3,2.8-3c0.7,0,1.2,0.2,1.4,0.2L55.3,6.3z"/>
	<path d="M57.4,2.8h0.7v3.6h0c0.3-0.6,0.9-1.1,1.8-1.1c1.5,0,1.9,1,1.9,2.4v3.4h-0.7V7.8c0-1-0.2-1.8-1.3-1.8
		c-1.2,0-1.7,1.2-1.7,2.2v3h-0.7V2.8z"/>
	<polygon points="70.3,11.2 69.4,11.2 67.9,6.3 67.9,6.3 66.3,11.2 65.5,11.2 63.6,5.5 64.4,5.5 65.9,10.4 65.9,10.4 67.5,5.5 
		68.4,5.5 69.9,10.4 69.9,10.4 71.5,5.5 72.2,5.5 	"/>
	<path d="M77.8,11c-0.5,0.2-1.1,0.3-1.7,0.3c-1.9,0-2.6-1.3-2.6-3c0-1.7,1-3,2.4-3c1.6,0,2.3,1.3,2.3,2.8v0.4h-3.9
		c0,1.2,0.6,2.2,1.9,2.2c0.5,0,1.3-0.2,1.6-0.4V11z M77.5,8c0-1-0.4-2-1.5-2c-1,0-1.7,1-1.7,2H77.5z"/>
	<path d="M81.1,4h-0.7V3.1h0.7V4z M80.4,5.5h0.7v5.7h-0.7V5.5z"/>
	<polygon points="83.3,10.6 86.7,6.1 83.4,6.1 83.4,5.5 87.5,5.5 87.5,6.1 84.1,10.6 87.5,10.6 87.5,11.2 83.3,11.2 	"/>
	<path d="M93.4,11c-0.5,0.2-1.1,0.3-1.7,0.3c-1.9,0-2.6-1.3-2.6-3c0-1.7,1-3,2.4-3c1.6,0,2.3,1.3,2.3,2.8v0.4H90
		c0,1.2,0.6,2.2,1.9,2.2c0.5,0,1.3-0.2,1.6-0.4V11z M93.1,8c0-1-0.4-2-1.4-2c-1,0-1.7,1-1.7,2H93.1z"/>
	<path d="M96.1,6.8c0-0.6,0-0.9,0-1.3h0.7v1.1h0C97,6,97.5,5.4,98.2,5.4c0.2,0,0.4,0,0.5,0.1v0.7c-0.1,0-0.3-0.1-0.5-0.1
		c-1.1,0-1.4,1.3-1.4,2.3v2.8h-0.7V6.8z"/>
	<path d="M101.3,4h-0.7V3.1h0.7V4z M100.6,5.5h0.7v5.7h-0.7V5.5z"/>
	<path d="M103.6,10.4c0.4,0.2,0.9,0.4,1.5,0.4c0.7,0,1.3-0.4,1.3-1c0-1.3-2.7-1.1-2.7-2.8c0-1.1,0.9-1.6,1.9-1.6
		c0.3,0,0.9,0.1,1.4,0.3l-0.1,0.6c-0.4-0.2-0.9-0.3-1.3-0.3c-0.7,0-1.2,0.2-1.2,0.9c0,1.1,2.8,0.9,2.8,2.8c0,1.2-1.1,1.6-2,1.6
		c-0.5,0-1.1-0.1-1.6-0.3L103.6,10.4z"/>
	<path d="M112.9,6.3c-0.4-0.2-0.8-0.3-1.2-0.3c-1.4,0-2.1,1-2.1,2.4c0,1.3,0.8,2.4,2.1,2.4c0.4,0,0.9-0.1,1.3-0.3l0.1,0.7
		c-0.5,0.2-0.9,0.2-1.5,0.2c-1.8,0-2.7-1.4-2.7-3c0-1.8,1.1-3,2.8-3c0.7,0,1.2,0.2,1.4,0.2L112.9,6.3z"/>
	<path d="M115,2.8h0.7v3.6h0c0.3-0.6,0.9-1.1,1.8-1.1c1.5,0,1.9,1,1.9,2.4v3.4h-0.7V7.8c0-1-0.2-1.8-1.4-1.8c-1.2,0-1.7,1.2-1.7,2.2
		v3H115V2.8z"/>
	<path d="M125.9,11c-0.5,0.2-1.1,0.3-1.7,0.3c-1.9,0-2.6-1.3-2.6-3c0-1.7,1-3,2.4-3c1.6,0,2.3,1.3,2.3,2.8v0.4h-3.9
		c0,1.2,0.6,2.2,1.9,2.2c0.5,0,1.3-0.2,1.6-0.4V11z M125.6,8c0-1-0.4-2-1.5-2c-1,0-1.7,1-1.7,2H125.6z"/>
	<polygon points="132.3,3.4 136.1,3.4 136.1,4.1 133,4.1 133,6.9 135.9,6.9 135.9,7.5 133,7.5 133,10.5 136.2,10.5 136.2,11.2 
		132.3,11.2 	"/>
	<path d="M139.3,4h-0.7V3.1h0.7V4z M138.6,5.5h0.7v5.7h-0.7V5.5z"/>
	<path d="M146.5,11.2h-0.7v-0.9h0c-0.4,0.7-1,1-1.8,1c-1.6,0-2.3-1.3-2.3-3c0-1.7,0.7-3,2.3-3c1.1,0,1.7,0.8,1.8,1.1h0V2.8h0.7V11.2
		z M144.1,10.7c1.2,0,1.7-1.3,1.7-2.4c0-1-0.4-2.4-1.7-2.4c-1.3,0-1.7,1.3-1.7,2.4C142.4,9.5,142.8,10.7,144.1,10.7"/>
	<path d="M153.6,10.7c0,1.6-0.7,2.9-2.7,2.9c-0.7,0-1.4-0.2-1.7-0.3l0.1-0.7c0.4,0.2,1.1,0.4,1.7,0.4c1.8,0,2-1.3,2-2.9h0
		c-0.4,0.8-1,1.1-1.7,1.1c-1.8,0-2.4-1.6-2.4-2.8c0-1.7,0.7-3,2.3-3c0.8,0,1.3,0.1,1.8,0.8h0V5.5h0.7V10.7z M151.1,10.6
		c1.3,0,1.7-1.2,1.7-2.2c0-1.4-0.4-2.4-1.7-2.4c-1.3,0-1.7,1.3-1.7,2.4C149.5,9.5,149.9,10.6,151.1,10.6"/>
	<path d="M159.9,11c-0.5,0.2-1.1,0.3-1.7,0.3c-1.9,0-2.6-1.3-2.6-3c0-1.7,1-3,2.4-3c1.6,0,2.3,1.3,2.3,2.8v0.4h-3.9
		c0,1.2,0.6,2.2,1.9,2.2c0.5,0,1.3-0.2,1.6-0.4V11z M159.6,8c0-1-0.4-2-1.4-2c-1,0-1.7,1-1.7,2H159.6z"/>
	<path d="M162.6,6.9c0-0.4,0-0.9,0-1.3h0.7v1h0c0.2-0.5,0.7-1.1,1.8-1.1c1.4,0,1.9,0.9,1.9,2.2v3.6h-0.7V7.8c0-1.1-0.4-1.8-1.3-1.8
		c-1.3,0-1.7,1.1-1.7,2.1v3.1h-0.7V6.9z"/>
	<path d="M171.9,5.4c1.8,0,2.7,1.4,2.7,3c0,1.6-0.8,3-2.7,3c-1.8,0-2.7-1.4-2.7-3C169.2,6.8,170,5.4,171.9,5.4 M171.9,10.7
		c1.2,0,1.9-1.1,1.9-2.4c0-1.3-0.7-2.4-1.9-2.4C170.6,6,170,7,170,8.4C170,9.7,170.6,10.7,171.9,10.7"/>
	<path d="M176.3,10.4c0.4,0.2,0.9,0.4,1.5,0.4c0.7,0,1.3-0.4,1.3-1c0-1.3-2.7-1.1-2.7-2.8c0-1.1,0.9-1.6,1.9-1.6
		c0.3,0,0.9,0.1,1.4,0.3l-0.1,0.6c-0.4-0.2-0.9-0.3-1.3-0.3c-0.7,0-1.2,0.2-1.2,0.9c0,1.1,2.8,0.9,2.8,2.8c0,1.2-1.1,1.6-2,1.6
		c-0.5,0-1.1-0.1-1.6-0.3L176.3,10.4z"/>
	<path d="M181.5,10.4c0.4,0.2,0.9,0.4,1.5,0.4c0.7,0,1.3-0.4,1.3-1c0-1.3-2.7-1.1-2.7-2.8c0-1.1,0.9-1.6,1.9-1.6
		c0.3,0,0.9,0.1,1.4,0.3l-0.1,0.6c-0.4-0.2-0.9-0.3-1.3-0.3c-0.7,0-1.2,0.2-1.2,0.9c0,1.1,2.8,0.9,2.8,2.8c0,1.2-1.1,1.6-2,1.6
		c-0.5,0-1.1-0.1-1.6-0.3L181.5,10.4z"/>
	<path d="M190.9,11c-0.5,0.2-1.1,0.3-1.7,0.3c-1.9,0-2.6-1.3-2.6-3c0-1.7,1-3,2.4-3c1.6,0,2.3,1.3,2.3,2.8v0.4h-3.9
		c0,1.2,0.6,2.2,1.9,2.2c0.5,0,1.3-0.2,1.6-0.4V11z M190.6,8c0-1-0.4-2-1.5-2c-1,0-1.7,1-1.7,2H190.6z"/>
	<path d="M193.6,6.9c0-0.4,0-0.9,0-1.3h0.7v1h0c0.2-0.5,0.7-1.1,1.8-1.1c1.4,0,1.9,0.9,1.9,2.2v3.6h-0.7V7.8c0-1.1-0.4-1.8-1.4-1.8
		c-1.3,0-1.7,1.1-1.7,2.1v3.1h-0.7V6.9z"/>
	<path d="M200.2,10.4c0.4,0.2,0.9,0.4,1.5,0.4c0.7,0,1.3-0.4,1.3-1c0-1.3-2.7-1.1-2.7-2.8c0-1.1,0.9-1.6,1.9-1.6
		c0.3,0,0.9,0.1,1.4,0.3l-0.1,0.6c-0.4-0.2-0.9-0.3-1.3-0.3c-0.7,0-1.2,0.2-1.2,0.9c0,1.1,2.8,0.9,2.8,2.8c0,1.2-1.1,1.6-2,1.6
		c-0.5,0-1.1-0.1-1.6-0.3L200.2,10.4z"/>
	<path d="M209.6,6.3c-0.4-0.2-0.8-0.3-1.2-0.3c-1.4,0-2.1,1-2.1,2.4c0,1.3,0.8,2.4,2.1,2.4c0.4,0,0.9-0.1,1.3-0.3l0.1,0.7
		c-0.5,0.2-0.9,0.2-1.5,0.2c-1.8,0-2.7-1.4-2.7-3c0-1.8,1.1-3,2.8-3c0.7,0,1.2,0.2,1.4,0.2L209.6,6.3z"/>
	<path d="M211.7,2.8h0.7v3.6h0c0.3-0.6,0.9-1.1,1.8-1.1c1.5,0,1.9,1,1.9,2.4v3.4h-0.7V7.8c0-1-0.2-1.8-1.4-1.8
		c-1.2,0-1.7,1.2-1.7,2.2v3h-0.7V2.8z"/>
	<path d="M222,10.3L222,10.3c-0.3,0.7-1.1,1-1.8,1c-1.6,0-1.9-1.1-1.9-1.6c0-1.9,2-2,3.5-2h0.1V7.5c0-1-0.3-1.5-1.3-1.5
		c-0.6,0-1.2,0.1-1.7,0.5V5.8c0.4-0.2,1.2-0.4,1.7-0.4c1.4,0,2,0.6,2,2.1V10c0,0.5,0,0.8,0.1,1.2H222V10.3z M222,8.3h-0.2
		c-1.2,0-2.7,0.1-2.7,1.4c0,0.7,0.5,1,1.2,1c1.7,0,1.7-1.4,1.7-2.1V8.3z"/>
	<path d="M225.7,6.1h-1.1V5.5h1.1V5.1c0-1.2,0-2.4,1.5-2.4c0.2,0,0.5,0,0.7,0.1l0,0.6c-0.1-0.1-0.4-0.1-0.6-0.1c-1,0-0.9,1-0.9,1.7
		v0.5h1.3v0.6h-1.3v5.1h-0.7V6.1z"/>
	<path d="M232.2,6.1H231v3.7c0,0.5,0.2,0.9,0.8,0.9c0.3,0,0.4-0.1,0.6-0.1l0,0.6c-0.2,0.1-0.5,0.2-0.9,0.2c-1.2,0-1.3-0.9-1.3-1.9
		V6.1h-1.1V5.5h1.1V4.1l0.7-0.2v1.6h1.3V6.1z"/>
	<path d="M50.4,19.7c-0.5-0.3-1.2-0.3-1.7-0.3c-2,0-3.2,1.4-3.2,3.4c0,2,1.1,3.4,3.2,3.4c0.5,0,1.3-0.1,1.7-0.3l0,0.7
		c-0.4,0.3-1.3,0.3-1.8,0.3c-2.5,0-3.9-1.6-3.9-4c0-2.4,1.5-4,3.9-4c0.5,0,1.4,0.1,1.8,0.3L50.4,19.7z"/>
	<path d="M55.3,20.8c1.8,0,2.7,1.4,2.7,3c0,1.6-0.8,3-2.7,3c-1.8,0-2.7-1.4-2.7-3C52.6,22.2,53.4,20.8,55.3,20.8 M55.3,26.1
		c1.2,0,1.9-1.1,1.9-2.4c0-1.3-0.7-2.4-1.9-2.4c-1.2,0-1.9,1.1-1.9,2.4C53.4,25.1,54,26.1,55.3,26.1"/>
	<path d="M60.1,22.2c0-0.4,0-0.9,0-1.3h0.7v1h0c0.2-0.5,0.7-1.1,1.8-1.1c1.4,0,1.9,0.9,1.9,2.2v3.6h-0.7v-3.5c0-1.1-0.4-1.8-1.3-1.8
		c-1.3,0-1.7,1.1-1.7,2.1v3.1h-0.7V22.2z"/>
	<path d="M67.7,21.5h-1.1v-0.6h1.1v-0.4c0-1.2,0-2.4,1.5-2.4c0.2,0,0.5,0,0.7,0.1l0,0.6c-0.1-0.1-0.4-0.1-0.6-0.1
		c-1,0-0.9,1-0.9,1.7v0.5h1.3v0.6h-1.3v5.1h-0.7V21.5z"/>
	<path d="M75.6,26.4c-0.5,0.2-1.1,0.3-1.7,0.3c-1.9,0-2.6-1.3-2.6-3c0-1.7,1-3,2.4-3c1.6,0,2.3,1.3,2.3,2.8V24h-3.9
		c0,1.2,0.6,2.2,1.9,2.2c0.5,0,1.3-0.2,1.6-0.4V26.4z M75.2,23.3c0-1-0.4-2-1.4-2c-1,0-1.7,1-1.7,2H75.2z M74.1,18.7H75l-1.4,1.6H73
		L74.1,18.7z"/>
	<path d="M82.7,26.6H82v-0.9h0c-0.4,0.7-1,1-1.8,1c-1.6,0-2.3-1.3-2.3-3c0-1.7,0.7-3,2.3-3c1.1,0,1.7,0.8,1.8,1.1h0v-3.6h0.7V26.6z
		 M80.3,26.1c1.2,0,1.7-1.3,1.7-2.4c0-1-0.4-2.4-1.7-2.4c-1.3,0-1.7,1.3-1.7,2.4C78.7,24.9,79,26.1,80.3,26.1"/>
	<path d="M89.1,26.4c-0.5,0.2-1.1,0.3-1.7,0.3c-1.9,0-2.6-1.3-2.6-3c0-1.7,1-3,2.4-3c1.6,0,2.3,1.3,2.3,2.8V24h-3.9
		c0,1.2,0.6,2.2,1.9,2.2c0.5,0,1.3-0.2,1.6-0.4V26.4z M88.8,23.3c0-1-0.4-2-1.4-2c-1,0-1.7,1-1.7,2H88.8z M87.6,18.7h0.9l-1.4,1.6
		h-0.5L87.6,18.7z"/>
	<path d="M91.7,22.2c0-0.6,0-0.9,0-1.3h0.7V22h0c0.3-0.6,0.7-1.2,1.5-1.2c0.2,0,0.4,0,0.5,0.1v0.7c-0.1,0-0.3-0.1-0.5-0.1
		c-1.1,0-1.4,1.2-1.4,2.3v2.8h-0.7V22.2z"/>
	<path d="M99.6,25.7L99.6,25.7c-0.3,0.7-1.1,1-1.8,1c-1.6,0-1.9-1.1-1.9-1.6c0-1.9,2-2,3.5-2h0.1v-0.3c0-1-0.3-1.5-1.3-1.5
		c-0.6,0-1.1,0.1-1.7,0.5v-0.7c0.4-0.2,1.2-0.4,1.7-0.4c1.4,0,2,0.6,2,2.1v2.5c0,0.5,0,0.8,0.1,1.2h-0.7V25.7z M99.5,23.7h-0.2
		c-1.2,0-2.7,0.1-2.7,1.4c0,0.7,0.5,1,1.2,1c1.7,0,1.7-1.4,1.7-2.1V23.7z"/>
	<path d="M105.2,21.5h-1.3v3.7c0,0.5,0.2,0.9,0.8,0.9c0.3,0,0.4-0.1,0.6-0.1l0,0.6c-0.2,0.1-0.5,0.2-0.9,0.2c-1.2,0-1.3-0.9-1.3-1.9
		v-3.3h-1.1v-0.6h1.1v-1.4l0.7-0.2v1.6h1.3V21.5z"/>
	<path d="M108.1,19.4h-0.7v-0.9h0.7V19.4z M107.4,20.9h0.7v5.7h-0.7V20.9z"/>
	<path d="M112.9,20.8c1.8,0,2.7,1.4,2.7,3c0,1.6-0.8,3-2.7,3c-1.8,0-2.7-1.4-2.7-3C110.3,22.2,111.1,20.8,112.9,20.8 M112.9,26.1
		c1.2,0,1.9-1.1,1.9-2.4c0-1.3-0.7-2.4-1.9-2.4c-1.2,0-1.9,1.1-1.9,2.4C111,25.1,111.7,26.1,112.9,26.1"/>
	<path d="M117.8,22.2c0-0.4,0-0.9,0-1.3h0.7v1h0c0.2-0.5,0.7-1.1,1.8-1.1c1.4,0,1.9,0.9,1.9,2.2v3.6h-0.7v-3.5
		c0-1.1-0.4-1.8-1.3-1.8c-1.3,0-1.7,1.1-1.7,2.1v3.1h-0.7V22.2z"/>
	<path d="M128.3,25.8c0.4,0.2,0.9,0.4,1.5,0.4c0.7,0,1.3-0.4,1.3-1c0-1.4-2.7-1.1-2.7-2.8c0-1.1,0.9-1.6,1.9-1.6
		c0.3,0,0.9,0.1,1.4,0.3l-0.1,0.6c-0.4-0.2-0.9-0.3-1.3-0.3c-0.7,0-1.2,0.2-1.2,0.9c0,1.1,2.8,0.9,2.8,2.8c0,1.2-1.1,1.6-2,1.6
		c-0.5,0-1.1-0.1-1.6-0.3L128.3,25.8z"/>
	<path d="M138.4,25.3c0,0.4,0,0.9,0,1.3h-0.7v-1h0c-0.2,0.5-0.7,1.1-1.8,1.1c-1.4,0-1.9-0.9-1.9-2.2v-3.6h0.7v3.5
		c0,1.1,0.4,1.8,1.4,1.8c1.3,0,1.7-1.1,1.7-2.1v-3.1h0.7V25.3z"/>
	<path d="M141.7,19.4H141v-0.9h0.7V19.4z M141,20.9h0.7v5.7H141V20.9z"/>
	<path d="M143.9,25.8c0.4,0.2,0.9,0.4,1.5,0.4c0.7,0,1.3-0.4,1.3-1c0-1.4-2.7-1.1-2.7-2.8c0-1.1,0.9-1.6,1.9-1.6
		c0.3,0,0.9,0.1,1.4,0.3l-0.1,0.6c-0.4-0.2-0.9-0.3-1.3-0.3c-0.7,0-1.2,0.2-1.2,0.9c0,1.1,2.8,0.9,2.8,2.8c0,1.2-1.1,1.6-2,1.6
		c-0.5,0-1.1-0.1-1.6-0.3L143.9,25.8z"/>
	<path d="M149.1,25.8c0.4,0.2,0.9,0.4,1.5,0.4c0.7,0,1.3-0.4,1.3-1c0-1.4-2.7-1.1-2.7-2.8c0-1.1,0.9-1.6,1.9-1.6
		c0.3,0,0.9,0.1,1.4,0.3l-0.1,0.6c-0.4-0.2-0.9-0.3-1.3-0.3c-0.7,0-1.2,0.2-1.2,0.9c0,1.1,2.8,0.9,2.8,2.8c0,1.2-1.1,1.6-2,1.6
		c-0.5,0-1.1-0.1-1.6-0.3L149.1,25.8z"/>
	<path d="M158.6,26.4c-0.5,0.2-1.1,0.3-1.7,0.3c-1.9,0-2.6-1.3-2.6-3c0-1.7,1-3,2.4-3c1.6,0,2.3,1.3,2.3,2.8V24h-3.9
		c0,1.2,0.6,2.2,1.9,2.2c0.5,0,1.3-0.2,1.6-0.4V26.4z M158.2,23.4c0-1-0.4-2-1.5-2c-1,0-1.7,1-1.7,2H158.2z"/>
	<path d="M50.4,35.1c-0.5-0.3-1.2-0.3-1.7-0.3c-2,0-3.2,1.4-3.2,3.4c0,2,1.1,3.4,3.2,3.4c0.5,0,1.3-0.1,1.7-0.3l0,0.7
		c-0.4,0.3-1.3,0.3-1.8,0.3c-2.5,0-3.9-1.6-3.9-4c0-2.4,1.5-4,3.9-4c0.5,0,1.4,0.1,1.8,0.3L50.4,35.1z"/>
	<path d="M55.3,36.2c1.8,0,2.7,1.4,2.7,3s-0.8,3-2.7,3c-1.8,0-2.7-1.4-2.7-3S53.4,36.2,55.3,36.2 M55.3,41.5c1.2,0,1.9-1.1,1.9-2.4
		c0-1.3-0.7-2.4-1.9-2.4c-1.2,0-1.9,1.1-1.9,2.4C53.4,40.5,54,41.5,55.3,41.5"/>
	<path d="M60.1,37.6c0-0.4,0-0.9,0-1.3h0.7v1h0c0.2-0.5,0.7-1.1,1.8-1.1c1.4,0,1.9,0.9,1.9,2.2V42h-0.7v-3.5c0-1.1-0.4-1.8-1.3-1.8
		c-1.3,0-1.7,1.1-1.7,2.1V42h-0.7V37.6z"/>
	<path d="M67.7,36.9h-1.1v-0.6h1.1v-0.4c0-1.2,0-2.4,1.5-2.4c0.2,0,0.5,0,0.7,0.1l0,0.6c-0.1-0.1-0.4-0.1-0.6-0.1
		c-1,0-0.9,1-0.9,1.7v0.5h1.3v0.6h-1.3V42h-0.7V36.9z"/>
	<path d="M75.6,41.8c-0.5,0.2-1.1,0.3-1.7,0.3c-1.9,0-2.6-1.3-2.6-3c0-1.7,1-3,2.4-3c1.6,0,2.3,1.3,2.3,2.8v0.4h-3.9
		c0,1.2,0.6,2.2,1.9,2.2c0.5,0,1.3-0.2,1.6-0.4V41.8z M75.2,38.7c0-1-0.4-2-1.4-2c-1,0-1.7,1-1.7,2H75.2z"/>
	<path d="M82.7,42H82v-0.9h0c-0.4,0.7-1,1-1.8,1c-1.6,0-2.3-1.3-2.3-3c0-1.7,0.7-3,2.3-3c1.1,0,1.7,0.8,1.8,1.1h0v-3.6h0.7V42z
		 M80.3,41.5c1.2,0,1.7-1.3,1.7-2.4c0-1-0.4-2.4-1.7-2.4c-1.3,0-1.7,1.3-1.7,2.4C78.7,40.2,79,41.5,80.3,41.5"/>
	<path d="M89.1,41.8c-0.5,0.2-1.1,0.3-1.7,0.3c-1.9,0-2.6-1.3-2.6-3c0-1.7,1-3,2.4-3c1.6,0,2.3,1.3,2.3,2.8v0.4h-3.9
		c0,1.2,0.6,2.2,1.9,2.2c0.5,0,1.3-0.2,1.6-0.4V41.8z M88.8,38.7c0-1-0.4-2-1.4-2c-1,0-1.7,1-1.7,2H88.8z"/>
	<path d="M91.7,37.6c0-0.6,0-0.9,0-1.3h0.7v1.1h0c0.3-0.6,0.7-1.2,1.5-1.2c0.2,0,0.4,0,0.5,0.1V37c-0.1,0-0.3-0.1-0.5-0.1
		c-1.1,0-1.4,1.3-1.4,2.3V42h-0.7V37.6z"/>
	<path d="M99.6,41.1L99.6,41.1c-0.3,0.7-1.1,1-1.8,1c-1.6,0-1.9-1.1-1.9-1.6c0-1.9,2-2,3.5-2h0.1v-0.3c0-1-0.3-1.5-1.3-1.5
		c-0.6,0-1.1,0.1-1.7,0.5v-0.7c0.4-0.2,1.2-0.4,1.7-0.4c1.4,0,2,0.6,2,2.1v2.5c0,0.5,0,0.8,0.1,1.2h-0.7V41.1z M99.5,39.1h-0.2
		c-1.2,0-2.7,0.1-2.7,1.4c0,0.7,0.5,1,1.2,1c1.7,0,1.7-1.4,1.7-2.1V39.1z"/>
	<polygon points="102.3,41.4 105.7,36.9 102.4,36.9 102.4,36.3 106.5,36.3 106.5,36.9 103.1,41.4 106.5,41.4 106.5,42 102.3,42 	"/>
	<path d="M109.3,34.8h-0.7v-0.9h0.7V34.8z M108.6,36.3h0.7V42h-0.7V36.3z"/>
	<path d="M114.2,36.2c1.8,0,2.7,1.4,2.7,3s-0.8,3-2.7,3c-1.8,0-2.7-1.4-2.7-3S112.3,36.2,114.2,36.2 M114.2,41.5
		c1.2,0,1.9-1.1,1.9-2.4c0-1.3-0.7-2.4-1.9-2.4c-1.2,0-1.9,1.1-1.9,2.4C112.3,40.5,112.9,41.5,114.2,41.5"/>
	<path d="M119,37.6c0-0.4,0-0.9,0-1.3h0.7v1h0c0.2-0.5,0.7-1.1,1.8-1.1c1.4,0,1.9,0.9,1.9,2.2V42h-0.7v-3.5c0-1.1-0.4-1.8-1.3-1.8
		c-1.3,0-1.7,1.1-1.7,2.1V42H119V37.6z"/>
	<path d="M129.9,41.8c-0.5,0.2-1.1,0.3-1.7,0.3c-1.9,0-2.6-1.3-2.6-3c0-1.7,1-3,2.4-3c1.6,0,2.3,1.3,2.3,2.8v0.4h-3.9
		c0,1.2,0.6,2.2,1.9,2.2c0.5,0,1.3-0.2,1.6-0.4V41.8z M129.6,38.7c0-1-0.4-2-1.4-2c-1,0-1.7,1-1.7,2H129.6z"/>
	<path d="M136.3,41c0.5,0.3,1,0.5,1.7,0.5c1,0,1.8-0.5,1.8-1.6c0-1.5-3.6-1.7-3.6-3.8c0-1.3,1.1-2,2.5-2c0.4,0,1,0.1,1.5,0.3L140,35
		c-0.3-0.2-0.9-0.3-1.4-0.3c-0.8,0-1.7,0.3-1.7,1.3c0,1.6,3.6,1.6,3.6,3.8c0,1.6-1.4,2.2-2.6,2.2c-0.8,0-1.3-0.2-1.8-0.3L136.3,41z"
		/>
	<polygon points="144.8,42 144,42 142.1,36.3 142.8,36.3 144.4,41.2 144.4,41.2 146.1,36.3 146.8,36.3 	"/>
	<path d="M149.4,34.8h-0.7v-0.9h0.7V34.8z M148.7,36.3h0.7V42h-0.7V36.3z"/>
	<polygon points="151.5,41.4 154.9,36.9 151.6,36.9 151.6,36.3 155.7,36.3 155.7,36.9 152.3,41.4 155.7,41.4 155.7,42 151.5,42 	"/>
	<polygon points="157.3,41.4 160.7,36.9 157.4,36.9 157.4,36.3 161.6,36.3 161.6,36.9 158.1,41.4 161.6,41.4 161.6,42 157.3,42 	"/>
	<path d="M167.5,41.8c-0.5,0.2-1.1,0.3-1.7,0.3c-1.9,0-2.6-1.3-2.6-3c0-1.7,1-3,2.4-3c1.6,0,2.3,1.3,2.3,2.8v0.4H164
		c0,1.2,0.6,2.2,1.9,2.2c0.5,0,1.3-0.2,1.6-0.4V41.8z M167.1,38.7c0-1-0.4-2-1.5-2c-1,0-1.7,1-1.7,2H167.1z"/>
	<path d="M170.1,37.6c0-0.6,0-0.9,0-1.3h0.7v1.1h0c0.3-0.6,0.7-1.2,1.5-1.2c0.2,0,0.4,0,0.5,0.1V37c-0.1,0-0.3-0.1-0.5-0.1
		c-1.1,0-1.4,1.3-1.4,2.3V42h-0.7V37.6z"/>
	<path d="M178,41.1L178,41.1c-0.3,0.7-1.1,1-1.8,1c-1.6,0-1.9-1.1-1.9-1.6c0-1.9,2-2,3.5-2h0.1v-0.3c0-1-0.3-1.5-1.3-1.5
		c-0.6,0-1.1,0.1-1.7,0.5v-0.7c0.4-0.2,1.2-0.4,1.7-0.4c1.4,0,2,0.6,2,2.1v2.5c0,0.5,0,0.8,0.1,1.2H178V41.1z M177.9,39.1h-0.2
		c-1.2,0-2.7,0.1-2.7,1.4c0,0.7,0.5,1,1.2,1c1.7,0,1.7-1.4,1.7-2.1V39.1z"/>
	<path d="M50.4,50.4c-0.5-0.3-1.2-0.3-1.7-0.3c-2,0-3.2,1.4-3.2,3.4c0,2,1.1,3.4,3.2,3.4c0.5,0,1.3-0.1,1.7-0.3l0,0.7
		c-0.4,0.3-1.3,0.3-1.8,0.3c-2.5,0-3.9-1.6-3.9-4c0-2.4,1.5-4,3.9-4c0.5,0,1.4,0.1,1.8,0.3L50.4,50.4z"/>
	<path d="M55.3,51.5c1.8,0,2.7,1.4,2.7,3s-0.8,3-2.7,3c-1.8,0-2.7-1.4-2.7-3S53.4,51.5,55.3,51.5 M55.3,56.9c1.2,0,1.9-1.1,1.9-2.4
		c0-1.3-0.7-2.4-1.9-2.4c-1.2,0-1.9,1.1-1.9,2.4C53.4,55.8,54,56.9,55.3,56.9"/>
	<path d="M60.1,53c0-0.4,0-0.9,0-1.3h0.7v1h0c0.2-0.5,0.7-1.1,1.8-1.1c1.4,0,1.9,0.9,1.9,2.2v3.6h-0.7v-3.5c0-1.1-0.4-1.8-1.3-1.8
		c-1.3,0-1.7,1.1-1.7,2.1v3.1h-0.7V53z"/>
	<path d="M67.7,52.3h-1.1v-0.6h1.1v-0.4c0-1.2,0-2.4,1.5-2.4c0.2,0,0.5,0,0.7,0.1l0,0.6c-0.1-0.1-0.4-0.1-0.6-0.1
		c-1,0-0.9,1-0.9,1.7v0.5h1.3v0.6h-1.3v5.1h-0.7V52.3z"/>
	<path d="M75.6,57.2c-0.5,0.2-1.1,0.3-1.7,0.3c-1.9,0-2.6-1.3-2.6-3c0-1.7,1-3,2.4-3c1.6,0,2.3,1.3,2.3,2.8v0.4h-3.9
		c0,1.2,0.6,2.2,1.9,2.2c0.5,0,1.3-0.2,1.6-0.4V57.2z M75.2,54.1c0-1-0.4-2-1.4-2c-1,0-1.7,1-1.7,2H75.2z"/>
	<path d="M82.7,57.4H82v-0.9h0c-0.4,0.7-1,1-1.8,1c-1.6,0-2.3-1.3-2.3-3c0-1.7,0.7-3,2.3-3c1.1,0,1.7,0.8,1.8,1.1h0V49h0.7V57.4z
		 M80.3,56.9c1.2,0,1.7-1.3,1.7-2.4c0-1-0.4-2.4-1.7-2.4c-1.3,0-1.7,1.3-1.7,2.4C78.7,55.6,79,56.9,80.3,56.9"/>
	<path d="M89.1,57.2c-0.5,0.2-1.1,0.3-1.7,0.3c-1.9,0-2.6-1.3-2.6-3c0-1.7,1-3,2.4-3c1.6,0,2.3,1.3,2.3,2.8v0.4h-3.9
		c0,1.2,0.6,2.2,1.9,2.2c0.5,0,1.3-0.2,1.6-0.4V57.2z M88.8,54.1c0-1-0.4-2-1.4-2c-1,0-1.7,1-1.7,2H88.8z"/>
	<path d="M91.7,52.9c0-0.6,0-0.9,0-1.3h0.7v1.1h0c0.3-0.6,0.7-1.2,1.5-1.2c0.2,0,0.4,0,0.5,0.1v0.7c-0.1,0-0.3-0.1-0.5-0.1
		c-1.1,0-1.4,1.3-1.4,2.3v2.8h-0.7V52.9z"/>
	<path d="M99.6,56.5L99.6,56.5c-0.3,0.7-1.1,1-1.8,1c-1.6,0-1.9-1.1-1.9-1.6c0-1.9,2-2,3.5-2h0.1v-0.3c0-1-0.3-1.5-1.3-1.5
		c-0.6,0-1.1,0.1-1.7,0.5v-0.7c0.4-0.2,1.2-0.4,1.7-0.4c1.4,0,2,0.6,2,2.1v2.5c0,0.5,0,0.8,0.1,1.2h-0.7V56.5z M99.5,54.5h-0.2
		c-1.2,0-2.7,0.1-2.7,1.4c0,0.7,0.5,1,1.2,1c1.7,0,1.7-1.4,1.7-2.1V54.5z"/>
	<polygon points="102.3,56.8 105.7,52.3 102.4,52.3 102.4,51.7 106.5,51.7 106.5,52.3 103.1,56.8 106.5,56.8 106.5,57.4 102.3,57.4 
			"/>
	<path d="M109.3,50.2h-0.7v-0.9h0.7V50.2z M108.6,51.7h0.7v5.7h-0.7V51.7z"/>
	<path d="M116.4,56c0,0.4,0,0.9,0,1.3h-0.7v-1h0c-0.2,0.5-0.7,1.1-1.8,1.1c-1.4,0-1.9-0.9-1.9-2.2v-3.6h0.7v3.5
		c0,1.1,0.4,1.8,1.4,1.8c1.3,0,1.7-1.1,1.7-2.1v-3.1h0.7V56z"/>
	<path d="M119,53c0-0.4,0-0.9,0-1.3h0.7v1h0c0.2-0.5,0.7-1.1,1.8-1.1c1.4,0,1.9,0.9,1.9,2.2v3.6h-0.7v-3.5c0-1.1-0.4-1.8-1.3-1.8
		c-1.3,0-1.7,1.1-1.7,2.1v3.1H119V53z"/>
	<path d="M129.5,56.5c0.4,0.2,0.9,0.4,1.5,0.4c0.7,0,1.3-0.4,1.3-1c0-1.4-2.7-1.1-2.7-2.8c0-1.1,0.9-1.6,1.9-1.6
		c0.3,0,0.9,0.1,1.4,0.3l-0.1,0.6c-0.4-0.2-0.9-0.3-1.3-0.3c-0.7,0-1.2,0.2-1.2,0.9c0,1.1,2.8,0.9,2.8,2.8c0,1.2-1.1,1.6-2,1.6
		c-0.5,0-1.1-0.1-1.6-0.3L129.5,56.5z"/>
	<polygon points="137.1,57.4 136.3,57.4 134.4,51.7 135.1,51.7 136.7,56.6 136.7,56.6 138.4,51.7 139.1,51.7 	"/>
	<path d="M141.7,50.2H141v-0.9h0.7V50.2z M141,51.7h0.7v5.7H141V51.7z"/>
	<polygon points="143.8,56.8 147.2,52.3 143.9,52.3 143.9,51.7 148,51.7 148,52.3 144.6,56.8 148,56.8 148,57.4 143.8,57.4 	"/>
	<path d="M150.2,52.9c0-0.6,0-0.9,0-1.3h0.7v1.1h0c0.3-0.6,0.7-1.2,1.5-1.2c0.2,0,0.4,0,0.5,0.1v0.7c-0.1,0-0.3-0.1-0.5-0.1
		c-1.1,0-1.4,1.3-1.4,2.3v2.8h-0.7V52.9z"/>
	<path d="M158,56.5L158,56.5c-0.3,0.7-1.1,1-1.8,1c-1.6,0-1.9-1.1-1.9-1.6c0-1.9,2-2,3.5-2h0.1v-0.3c0-1-0.3-1.5-1.3-1.5
		c-0.6,0-1.1,0.1-1.7,0.5v-0.7c0.4-0.2,1.2-0.4,1.7-0.4c1.4,0,2,0.6,2,2.1v2.5c0,0.5,0,0.8,0.1,1.2H158V56.5z M157.9,54.5h-0.2
		c-1.2,0-2.7,0.1-2.7,1.4c0,0.7,0.5,1,1.2,1c1.7,0,1.7-1.4,1.7-2.1V54.5z"/>
	<path class="st0" d="M32.1,3.1c0,0-5.9-2.6-15.8-2.6h0C6.5,0.5,0.6,3.1,0.6,3.1S0,14.5,2.3,21c4,11.4,14.1,14.6,14.1,14.6h0h0
		c0,0,10.1-3.2,14.1-14.6C32.6,14.5,32.1,3.1,32.1,3.1"/>
	<polygon class="st1" points="26.8,12.9 26.8,19.2 19.5,19.2 19.5,26.6 13.2,26.6 13.2,19.2 5.8,19.2 5.8,12.9 13.2,12.9 13.2,5.6 
		19.5,5.6 19.5,12.9 	"/>
</g>
<g>
	<path d="M263.9,3.4h4.6v1.2h-3v1.9h2.8v1.2h-2.8V10h3.1v1.2h-4.6V3.4z"/>
	<path d="M270.1,3h1.5v1.4h-1.5V3z M270.1,5.5h1.5v5.7h-1.5V5.5z"/>
	<path d="M277.2,10.6L277.2,10.6c-0.5,0.5-1.1,0.8-1.8,0.8c-0.9,0-1.5-0.3-1.9-0.9c-0.4-0.6-0.6-1.3-0.5-2.1c0-0.8,0.2-1.5,0.5-2.1
		c0.4-0.6,1-0.9,1.9-0.9c0.7,0,1.3,0.3,1.7,0.8h0V2.9h1.5v8.4h-1.5V10.6z M274.5,8.3c0,0.4,0.1,0.8,0.3,1.2c0.1,0.2,0.2,0.3,0.4,0.4
		c0.2,0.1,0.4,0.2,0.6,0.2c0.3,0,0.5-0.1,0.6-0.2c0.2-0.1,0.3-0.3,0.4-0.4c0.1-0.2,0.2-0.4,0.2-0.6c0-0.1,0-0.2,0-0.3
		c0-0.1,0-0.2,0-0.3c0-0.4-0.1-0.8-0.3-1.2c-0.1-0.2-0.2-0.3-0.4-0.4c-0.2-0.1-0.4-0.2-0.6-0.2c-0.5,0-0.8,0.2-1,0.6
		c-0.1,0.2-0.2,0.4-0.2,0.6C274.6,7.9,274.5,8.1,274.5,8.3z"/>
	<path d="M285.6,5.5v5.2c0,0.1,0,0.2,0,0.3c0,0.1,0,0.2,0,0.3c0,0.2-0.1,0.4-0.1,0.6c-0.1,0.4-0.3,0.7-0.5,1
		c-0.2,0.3-0.5,0.5-0.9,0.7c-0.4,0.2-0.9,0.3-1.5,0.3c-0.6,0-1.2-0.1-2-0.4l0.1-1.3c0.2,0.1,0.5,0.2,0.8,0.3
		c0.3,0.1,0.6,0.2,0.8,0.2c0.4,0,0.7-0.1,1-0.2c0.2-0.1,0.4-0.3,0.5-0.5c0.1-0.2,0.2-0.4,0.2-0.7c0-0.1,0-0.3,0-0.4
		c0-0.1,0-0.3,0-0.4h0c-0.1,0.3-0.4,0.5-0.7,0.6c-0.3,0.2-0.7,0.3-1.1,0.3c-0.8,0-1.4-0.3-1.8-0.9c-0.4-0.6-0.6-1.2-0.5-2
		c0-0.7,0.2-1.4,0.6-2c0.4-0.6,1-0.9,1.9-1c0.8,0,1.3,0.3,1.8,0.9h0V5.5H285.6z M282.8,10.1c0.5,0,0.8-0.2,1-0.5
		c0.2-0.3,0.3-0.7,0.3-1.2c0-0.5-0.1-0.9-0.3-1.3c-0.2-0.3-0.5-0.5-1-0.5c-0.5,0-0.9,0.2-1,0.6c-0.2,0.4-0.3,0.8-0.3,1.2
		c0,0.4,0.1,0.8,0.3,1.2c0.1,0.2,0.3,0.3,0.4,0.4C282.4,10,282.6,10.1,282.8,10.1z"/>
	<path d="M291.9,10.9c-0.5,0.3-1.2,0.5-2,0.5c-2,0-3-1-3-3c0-0.9,0.2-1.6,0.7-2.2c0.5-0.6,1.1-0.9,2-0.9c1,0,1.8,0.3,2.2,1
		c0.4,0.6,0.6,1.5,0.6,2.5h-4c0,0.5,0.2,0.8,0.5,1.1c0.3,0.3,0.7,0.4,1.1,0.4c0.4,0,0.7-0.1,1-0.2c0.3-0.1,0.6-0.2,0.9-0.4V10.9z
		 M290.9,7.8c0-0.4-0.1-0.7-0.3-0.9c-0.2-0.3-0.5-0.4-0.9-0.4c-0.4,0-0.7,0.1-0.9,0.4c-0.2,0.3-0.3,0.6-0.4,1H290.9z"/>
	<path d="M293.7,5.5h1.4v0.8h0c0.5-0.6,1.1-0.9,1.9-0.9c0.7,0,1.2,0.2,1.5,0.6c0.3,0.4,0.5,1,0.5,1.6v3.6h-1.5V7.9
		c0-0.1,0-0.2,0-0.3c0-0.2-0.1-0.4-0.1-0.5c-0.1-0.2-0.2-0.3-0.3-0.4c-0.1-0.1-0.3-0.1-0.6-0.1c-0.3,0-0.5,0.1-0.6,0.2
		c-0.2,0.1-0.3,0.3-0.4,0.5c-0.1,0.2-0.2,0.4-0.2,0.6c0,0.2-0.1,0.4-0.1,0.6v2.8h-1.5V5.5z"/>
	<path d="M300.3,8.4c0-1,0.3-1.7,0.9-2.2c0.6-0.5,1.3-0.8,2.1-0.8c0.9,0,1.6,0.3,2.2,0.8s0.8,1.3,0.9,2.2c0,0.8-0.3,1.5-0.8,2.1
		c-0.5,0.6-1.3,0.9-2.2,0.9c-1,0-1.7-0.3-2.2-0.9C300.5,9.9,300.3,9.2,300.3,8.4z M301.5,4.4V3.1h1.3v1.3H301.5z M301.8,8.2
		c0,0.1,0,0.1,0,0.2c0,0.1,0,0.1,0,0.2l0,0.2c0,0.1,0,0.1,0,0.2c0,0.2,0.1,0.5,0.2,0.6c0.1,0.2,0.3,0.4,0.4,0.5
		c0.2,0.1,0.4,0.2,0.7,0.2c0.3,0,0.5-0.1,0.7-0.2c0.2-0.1,0.3-0.3,0.4-0.5c0.1-0.2,0.2-0.4,0.2-0.6c0-0.1,0-0.2,0-0.4
		c0-0.1,0-0.2,0-0.4c0-0.5-0.1-0.9-0.3-1.2c-0.2-0.3-0.6-0.5-1.1-0.5c-0.5,0-0.8,0.2-1.1,0.5C302,7.4,301.8,7.7,301.8,8.2z
		 M305.1,3.1v1.3h-1.3V3.1H305.1z"/>
	<path d="M311,6.7c-0.2-0.1-0.4-0.1-0.6-0.2c-0.1,0-0.2,0-0.3,0c-0.1,0-0.2,0-0.4,0c-0.2,0-0.4,0-0.6,0.1c-0.2,0.1-0.3,0.3-0.3,0.5
		c0,0.2,0.2,0.4,0.4,0.5c0.1,0,0.1,0.1,0.2,0.1c0.1,0,0.1,0,0.2,0.1c0.1,0,0.2,0,0.2,0.1c0.1,0,0.2,0.1,0.2,0.1
		c0.2,0.1,0.3,0.1,0.5,0.2c0.2,0.1,0.3,0.2,0.4,0.3c0.1,0.1,0.2,0.3,0.3,0.5c0.1,0.2,0.1,0.4,0.1,0.7c0,0.7-0.3,1.1-0.7,1.4
		c-0.5,0.3-1,0.4-1.7,0.4c-0.6,0-1.2-0.1-1.7-0.2l0.1-1.2c0.5,0.3,1,0.4,1.5,0.4c0.2,0,0.4-0.1,0.6-0.2c0.2-0.1,0.3-0.3,0.3-0.5
		c0-0.1,0-0.3-0.1-0.4c-0.1-0.1-0.2-0.2-0.3-0.2c-0.1-0.1-0.3-0.1-0.4-0.2c-0.1,0-0.3-0.1-0.5-0.1c-0.1,0-0.2-0.1-0.2-0.1
		c-0.1,0-0.2-0.1-0.2-0.1c-0.1,0-0.2-0.1-0.2-0.1c-0.1,0-0.1-0.1-0.2-0.2c-0.1-0.1-0.2-0.3-0.3-0.4c-0.1-0.2-0.1-0.4-0.1-0.6
		c0-0.6,0.2-1.1,0.7-1.4c0.4-0.3,1-0.4,1.6-0.4c0.2,0,0.3,0,0.5,0c0.2,0,0.3,0,0.4,0c0.1,0,0.2,0,0.4,0.1s0.2,0.1,0.3,0.1L311,6.7z"
		/>
	<path d="M316.1,6.7c-0.2-0.1-0.4-0.1-0.6-0.2c-0.1,0-0.2,0-0.3,0c-0.1,0-0.2,0-0.4,0c-0.2,0-0.4,0-0.6,0.1
		c-0.2,0.1-0.3,0.3-0.3,0.5c0,0.2,0.2,0.4,0.4,0.5c0.1,0,0.1,0.1,0.2,0.1c0.1,0,0.1,0,0.2,0.1c0.1,0,0.2,0,0.2,0.1
		c0.1,0,0.2,0.1,0.2,0.1c0.2,0.1,0.3,0.1,0.5,0.2c0.2,0.1,0.3,0.2,0.4,0.3c0.1,0.1,0.2,0.3,0.3,0.5c0.1,0.2,0.1,0.4,0.1,0.7
		c0,0.7-0.3,1.1-0.7,1.4c-0.5,0.3-1,0.4-1.7,0.4c-0.6,0-1.2-0.1-1.7-0.2l0.1-1.2c0.5,0.3,1,0.4,1.5,0.4c0.2,0,0.4-0.1,0.6-0.2
		c0.2-0.1,0.3-0.3,0.3-0.5c0-0.1,0-0.3-0.1-0.4c-0.1-0.1-0.2-0.2-0.3-0.2c-0.1-0.1-0.3-0.1-0.4-0.2c-0.1,0-0.3-0.1-0.5-0.1
		c-0.1,0-0.2-0.1-0.2-0.1c-0.1,0-0.2-0.1-0.2-0.1c-0.1,0-0.2-0.1-0.2-0.1c-0.1,0-0.1-0.1-0.2-0.2c-0.1-0.1-0.2-0.3-0.3-0.4
		c-0.1-0.2-0.1-0.4-0.1-0.6c0-0.6,0.2-1.1,0.7-1.4c0.4-0.3,1-0.4,1.6-0.4c0.2,0,0.3,0,0.5,0c0.2,0,0.3,0,0.4,0c0.1,0,0.2,0,0.4,0.1
		s0.2,0.1,0.3,0.1L316.1,6.7z"/>
	<path d="M317.9,3h1.5v1.4h-1.5V3z M317.9,5.5h1.5v5.7h-1.5V5.5z"/>
	<path d="M324.5,6.7c-0.2-0.1-0.4-0.1-0.6-0.2c-0.1,0-0.2,0-0.3,0c-0.1,0-0.2,0-0.4,0c-0.2,0-0.4,0-0.6,0.1
		c-0.2,0.1-0.3,0.3-0.3,0.5c0,0.2,0.2,0.4,0.4,0.5c0.1,0,0.1,0.1,0.2,0.1c0.1,0,0.1,0,0.2,0.1c0.1,0,0.2,0,0.2,0.1
		c0.1,0,0.2,0.1,0.2,0.1c0.2,0.1,0.3,0.1,0.5,0.2c0.2,0.1,0.3,0.2,0.4,0.3c0.1,0.1,0.2,0.3,0.3,0.5c0.1,0.2,0.1,0.4,0.1,0.7
		c0,0.7-0.3,1.1-0.7,1.4c-0.5,0.3-1,0.4-1.7,0.4c-0.6,0-1.2-0.1-1.7-0.2l0.1-1.2c0.5,0.3,1,0.4,1.5,0.4c0.2,0,0.4-0.1,0.6-0.2
		c0.2-0.1,0.3-0.3,0.3-0.5c0-0.1,0-0.3-0.1-0.4c-0.1-0.1-0.2-0.2-0.3-0.2c-0.1-0.1-0.3-0.1-0.4-0.2c-0.1,0-0.3-0.1-0.5-0.1
		c-0.1,0-0.2-0.1-0.2-0.1c-0.1,0-0.2-0.1-0.2-0.1c-0.1,0-0.2-0.1-0.2-0.1c-0.1,0-0.1-0.1-0.2-0.2c-0.1-0.1-0.2-0.3-0.3-0.4
		c-0.1-0.2-0.1-0.4-0.1-0.6c0-0.6,0.2-1.1,0.7-1.4c0.4-0.3,1-0.4,1.6-0.4c0.2,0,0.3,0,0.5,0c0.2,0,0.3,0,0.4,0c0.1,0,0.2,0,0.4,0.1
		s0.2,0.1,0.3,0.1L324.5,6.7z"/>
	<path d="M329.9,6.7c-0.1-0.1-0.3-0.1-0.4-0.2c-0.1,0-0.2,0-0.3,0c-0.1,0-0.2,0-0.3,0c-0.5,0-0.8,0.2-1.1,0.5
		c-0.3,0.3-0.4,0.8-0.4,1.3c0,0.5,0.1,1,0.4,1.3c0.3,0.4,0.6,0.5,1.2,0.5c0.2,0,0.4,0,0.6-0.1c0.2-0.1,0.4-0.1,0.5-0.2l0.1,1.2
		c-0.2,0.1-0.4,0.1-0.7,0.1c-0.1,0-0.2,0-0.4,0c-0.1,0-0.3,0-0.4,0c-0.9,0-1.6-0.3-2.1-0.9c-0.5-0.6-0.7-1.3-0.7-2.2
		c0-0.8,0.2-1.6,0.7-2.1c0.5-0.6,1.2-0.8,2.1-0.9c0.6,0,1,0.1,1.4,0.2L329.9,6.7z"/>
	<path d="M331.3,2.9h1.5v3.4h0c0.4-0.6,1-0.9,1.8-0.9c0.7,0,1.2,0.2,1.5,0.6c0.3,0.4,0.5,1,0.5,1.6v3.6h-1.5V7.9c0-0.1,0-0.2,0-0.3
		c0-0.2-0.1-0.4-0.1-0.5c-0.1-0.2-0.2-0.3-0.3-0.4c-0.1-0.1-0.3-0.1-0.6-0.1c-0.3,0-0.5,0.1-0.6,0.2c-0.2,0.1-0.3,0.3-0.4,0.5
		c-0.1,0.2-0.2,0.4-0.2,0.6c0,0.2-0.1,0.4-0.1,0.6v2.8h-1.5V2.9z"/>
	<path d="M342.9,10.9c-0.5,0.3-1.2,0.5-2,0.5c-2,0-3-1-3-3c0-0.9,0.2-1.6,0.7-2.2c0.5-0.6,1.1-0.9,2-0.9c1,0,1.8,0.3,2.2,1
		c0.4,0.6,0.6,1.5,0.6,2.5h-4c0,0.5,0.2,0.8,0.5,1.1c0.3,0.3,0.7,0.4,1.1,0.4c0.4,0,0.7-0.1,1-0.2c0.3-0.1,0.6-0.2,0.9-0.4V10.9z
		 M341.9,7.8c0-0.4-0.1-0.7-0.3-0.9c-0.2-0.3-0.5-0.4-0.9-0.4c-0.4,0-0.7,0.1-0.9,0.4c-0.2,0.3-0.3,0.6-0.4,1H341.9z"/>
	<path d="M348.1,6.7c-0.2-0.1-0.4-0.1-0.6-0.2c-0.1,0-0.2,0-0.3,0c-0.1,0-0.2,0-0.4,0c-0.2,0-0.4,0-0.6,0.1
		c-0.2,0.1-0.3,0.3-0.3,0.5c0,0.2,0.2,0.4,0.4,0.5c0.1,0,0.1,0.1,0.2,0.1c0.1,0,0.1,0,0.2,0.1c0.1,0,0.2,0,0.2,0.1
		c0.1,0,0.2,0.1,0.2,0.1c0.2,0.1,0.3,0.1,0.5,0.2c0.2,0.1,0.3,0.2,0.4,0.3c0.1,0.1,0.2,0.3,0.3,0.5c0.1,0.2,0.1,0.4,0.1,0.7
		c0,0.7-0.3,1.1-0.7,1.4c-0.5,0.3-1,0.4-1.7,0.4c-0.6,0-1.2-0.1-1.7-0.2l0.1-1.2c0.5,0.3,1,0.4,1.5,0.4c0.2,0,0.4-0.1,0.6-0.2
		c0.2-0.1,0.3-0.3,0.3-0.5c0-0.1,0-0.3-0.1-0.4c-0.1-0.1-0.2-0.2-0.3-0.2c-0.1-0.1-0.3-0.1-0.4-0.2c-0.1,0-0.3-0.1-0.5-0.1
		c-0.1,0-0.2-0.1-0.2-0.1c-0.1,0-0.2-0.1-0.2-0.1c-0.1,0-0.2-0.1-0.2-0.1c-0.1,0-0.1-0.1-0.2-0.2c-0.1-0.1-0.2-0.3-0.3-0.4
		c-0.1-0.2-0.1-0.4-0.1-0.6c0-0.6,0.2-1.1,0.7-1.4c0.4-0.3,1-0.4,1.6-0.4c0.2,0,0.3,0,0.5,0c0.2,0,0.3,0,0.4,0c0.1,0,0.2,0,0.4,0.1
		s0.2,0.1,0.3,0.1L348.1,6.7z"/>
	<path d="M353.1,3.4h1.6v7.8h-1.6V3.4z"/>
	<path d="M356.3,5.5h1.4v0.8h0c0.5-0.6,1.1-0.9,1.9-0.9c0.7,0,1.2,0.2,1.5,0.6c0.3,0.4,0.5,1,0.5,1.6v3.6h-1.5V7.9
		c0-0.1,0-0.2,0-0.3c0-0.2-0.1-0.4-0.1-0.5c-0.1-0.2-0.2-0.3-0.3-0.4c-0.1-0.1-0.3-0.1-0.6-0.1c-0.3,0-0.5,0.1-0.6,0.2
		c-0.2,0.1-0.3,0.3-0.4,0.5c-0.1,0.2-0.2,0.4-0.2,0.6c0,0.2-0.1,0.4-0.1,0.6v2.8h-1.5V5.5z"/>
	<path d="M366.7,6.7c-0.2-0.1-0.4-0.1-0.6-0.2c-0.1,0-0.2,0-0.3,0c-0.1,0-0.2,0-0.4,0c-0.2,0-0.4,0-0.6,0.1
		c-0.2,0.1-0.3,0.3-0.3,0.5c0,0.2,0.2,0.4,0.4,0.5c0.1,0,0.1,0.1,0.2,0.1c0.1,0,0.1,0,0.2,0.1c0.1,0,0.2,0,0.2,0.1
		c0.1,0,0.2,0.1,0.2,0.1c0.2,0.1,0.3,0.1,0.5,0.2c0.2,0.1,0.3,0.2,0.4,0.3c0.1,0.1,0.2,0.3,0.3,0.5c0.1,0.2,0.1,0.4,0.1,0.7
		c0,0.7-0.3,1.1-0.7,1.4c-0.5,0.3-1,0.4-1.7,0.4c-0.6,0-1.2-0.1-1.7-0.2l0.1-1.2c0.5,0.3,1,0.4,1.5,0.4c0.2,0,0.4-0.1,0.6-0.2
		c0.2-0.1,0.3-0.3,0.3-0.5c0-0.1,0-0.3-0.1-0.4c-0.1-0.1-0.2-0.2-0.3-0.2c-0.1-0.1-0.3-0.1-0.4-0.2c-0.1,0-0.3-0.1-0.5-0.1
		c-0.1,0-0.2-0.1-0.2-0.1c-0.1,0-0.2-0.1-0.2-0.1c-0.1,0-0.2-0.1-0.2-0.1c-0.1,0-0.1-0.1-0.2-0.2c-0.1-0.1-0.2-0.3-0.3-0.4
		c-0.1-0.2-0.1-0.4-0.1-0.6c0-0.6,0.2-1.1,0.7-1.4c0.4-0.3,1-0.4,1.6-0.4c0.2,0,0.3,0,0.5,0c0.2,0,0.3,0,0.4,0c0.1,0,0.2,0,0.4,0.1
		s0.2,0.1,0.3,0.1L366.7,6.7z"/>
	<path d="M368.9,6.6h-1.1V5.5h1.1V4.3l1.5-0.5v1.6h1.3v1.1h-1.3v2.7c0,0.2,0,0.5,0.1,0.6c0.1,0.2,0.3,0.3,0.6,0.3
		c0.3,0,0.5-0.1,0.7-0.2l0,1.2c-0.3,0.1-0.7,0.1-1.1,0.1c-1.2,0-1.8-0.7-1.8-1.9V6.6z"/>
	<path d="M373,3h1.5v1.4H373V3z M373,5.5h1.5v5.7H373V5.5z"/>
	<path d="M376.7,6.6h-1.1V5.5h1.1V4.3l1.5-0.5v1.6h1.3v1.1h-1.3v2.7c0,0.2,0,0.5,0.1,0.6c0.1,0.2,0.3,0.3,0.6,0.3
		c0.3,0,0.5-0.1,0.7-0.2l0,1.2c-0.3,0.1-0.7,0.1-1.1,0.1c-1.2,0-1.8-0.7-1.8-1.9V6.6z"/>
	<path d="M386,11.2h-1.4v-0.8h0c-0.5,0.6-1.1,0.9-1.9,0.9c-0.7,0-1.2-0.2-1.5-0.6c-0.3-0.4-0.5-0.9-0.5-1.6V5.5h1.5v3.1
		c0,0,0,0.1,0,0.1c0,0,0,0.1,0,0.1v0.1c0,0,0,0.1,0,0.1c0,0.2,0,0.4,0.1,0.5c0.1,0.2,0.2,0.3,0.3,0.4c0.1,0.1,0.3,0.2,0.5,0.2
		c0.3,0,0.5-0.1,0.7-0.2c0.2-0.1,0.3-0.3,0.4-0.5c0.1-0.2,0.2-0.4,0.2-0.6c0-0.1,0-0.2,0-0.3c0-0.1,0-0.2,0-0.3V5.5h1.5V11.2z"/>
	<path d="M388.2,6.6h-1.1V5.5h1.1V4.3l1.5-0.5v1.6h1.3v1.1h-1.3v2.7c0,0.2,0,0.5,0.1,0.6c0.1,0.2,0.3,0.3,0.6,0.3
		c0.3,0,0.5-0.1,0.7-0.2l0,1.2c-0.3,0.1-0.7,0.1-1.1,0.1c-1.2,0-1.8-0.7-1.8-1.9V6.6z"/>
	<path d="M396,6.6h-1.1V5.5h1.1V4.7c0-0.6,0.2-1.1,0.5-1.4c0.3-0.3,0.7-0.5,1.4-0.5c0.2,0,0.4,0,0.6,0c0.2,0,0.3,0,0.5,0.1l-0.1,1.2
		c-0.1-0.1-0.1-0.1-0.2-0.1c-0.1,0-0.2-0.1-0.4-0.1c-0.2,0-0.4,0.1-0.5,0.3c-0.1,0.2-0.1,0.4-0.1,0.6v0.7h1.3v1.1h-1.3v4.6H396V6.6z
		"/>
	<path d="M405.2,11.2h-1.4v-0.8h0c-0.5,0.6-1.1,0.9-1.9,0.9c-0.7,0-1.2-0.2-1.5-0.6c-0.3-0.4-0.5-0.9-0.5-1.6V5.5h1.5v3.1
		c0,0,0,0.1,0,0.1c0,0,0,0.1,0,0.1v0.1c0,0,0,0.1,0,0.1c0,0.2,0,0.4,0.1,0.5c0.1,0.2,0.2,0.3,0.3,0.4c0.1,0.1,0.3,0.2,0.5,0.2
		c0.3,0,0.5-0.1,0.7-0.2c0.2-0.1,0.3-0.3,0.4-0.5c0.1-0.2,0.2-0.4,0.2-0.6c0-0.1,0-0.2,0-0.3c0-0.1,0-0.2,0-0.3V5.5h1.5V11.2z
		 M400.8,4.4V3.1h1.3v1.3H400.8z M404.4,3.1v1.3h-1.3V3.1H404.4z"/>
	<path d="M407,5.5h1.3v1.3h0c0-0.3,0.2-0.6,0.5-0.9c0.3-0.3,0.6-0.5,1.1-0.5c0.2,0,0.3,0,0.5,0v1.5c-0.2-0.1-0.4-0.1-0.7-0.1
		c-0.3,0-0.5,0.1-0.7,0.2c-0.2,0.2-0.3,0.4-0.4,0.6c-0.1,0.2-0.1,0.5-0.1,0.8c0,0.1,0,0.3,0,0.4c0,0.1,0,0.2,0,0.4v2.1H407V5.5z"/>
	<path d="M414.8,3.4h2.5l1.9,5.9h0l1.9-5.9h2.5v7.8h-1.5V4.8h0l-2.1,6.4h-1.5l-2.1-6.4l0,0v6.4h-1.5V3.4z"/>
	<path d="M430,10.9c-0.5,0.3-1.2,0.5-2,0.5c-2,0-3-1-3-3c0-0.9,0.2-1.6,0.7-2.2c0.5-0.6,1.1-0.9,2-0.9c1,0,1.8,0.3,2.2,1
		c0.4,0.6,0.6,1.5,0.6,2.5h-4c0,0.5,0.2,0.8,0.5,1.1c0.3,0.3,0.7,0.4,1.1,0.4c0.4,0,0.7-0.1,1-0.2c0.3-0.1,0.6-0.2,0.9-0.4V10.9z
		 M429,7.8c0-0.4-0.1-0.7-0.3-0.9c-0.2-0.3-0.5-0.4-0.9-0.4c-0.4,0-0.7,0.1-0.9,0.4c-0.2,0.3-0.3,0.6-0.4,1H429z"/>
	<path d="M432.2,6.6h-1.1V5.5h1.1V4.3l1.5-0.5v1.6h1.3v1.1h-1.3v2.7c0,0.2,0,0.5,0.1,0.6c0.1,0.2,0.3,0.3,0.6,0.3
		c0.3,0,0.5-0.1,0.7-0.2l0,1.2c-0.3,0.1-0.7,0.1-1.1,0.1c-1.2,0-1.8-0.7-1.8-1.9V6.6z"/>
	<path d="M436.3,5.5h1.3v1.3h0c0-0.3,0.2-0.6,0.5-0.9c0.3-0.3,0.6-0.5,1.1-0.5c0.2,0,0.3,0,0.5,0v1.5c-0.2-0.1-0.4-0.1-0.7-0.1
		c-0.3,0-0.5,0.1-0.7,0.2c-0.2,0.2-0.3,0.4-0.4,0.6c-0.1,0.2-0.1,0.5-0.1,0.8c0,0.1,0,0.3,0,0.4c0,0.1,0,0.2,0,0.4v2.1h-1.5V5.5z"/>
	<path d="M440.2,8.4c0-1,0.3-1.7,0.9-2.2c0.6-0.5,1.3-0.8,2.1-0.8c0.9,0,1.6,0.3,2.2,0.8c0.6,0.5,0.8,1.3,0.9,2.2
		c0,0.8-0.3,1.5-0.8,2.1c-0.5,0.6-1.3,0.9-2.2,0.9c-1,0-1.7-0.3-2.2-0.9C440.5,9.9,440.2,9.2,440.2,8.4z M441.8,8.2
		c0,0.1,0,0.1,0,0.2c0,0.1,0,0.1,0,0.2l0,0.2c0,0.1,0,0.1,0,0.2c0,0.2,0.1,0.5,0.2,0.6c0.1,0.2,0.3,0.4,0.4,0.5
		c0.2,0.1,0.4,0.2,0.7,0.2c0.3,0,0.5-0.1,0.7-0.2c0.2-0.1,0.3-0.3,0.4-0.5c0.1-0.2,0.2-0.4,0.2-0.6c0-0.1,0-0.2,0-0.4
		c0-0.1,0-0.2,0-0.4c0-0.5-0.1-0.9-0.3-1.2c-0.2-0.3-0.6-0.5-1.1-0.5c-0.5,0-0.8,0.2-1.1,0.5C441.9,7.4,441.8,7.7,441.8,8.2z"/>
	<path d="M447.6,2.9h1.5v8.4h-1.5V2.9z"/>
	<path d="M450.5,8.4c0-1,0.3-1.7,0.9-2.2c0.6-0.5,1.3-0.8,2.1-0.8c0.9,0,1.6,0.3,2.2,0.8s0.8,1.3,0.9,2.2c0,0.8-0.3,1.5-0.8,2.1
		c-0.5,0.6-1.3,0.9-2.2,0.9c-1,0-1.7-0.3-2.2-0.9C450.7,9.9,450.5,9.2,450.5,8.4z M452,8.2c0,0.1,0,0.1,0,0.2c0,0.1,0,0.1,0,0.2
		l0,0.2c0,0.1,0,0.1,0,0.2c0,0.2,0.1,0.5,0.2,0.6c0.1,0.2,0.3,0.4,0.4,0.5c0.2,0.1,0.4,0.2,0.7,0.2c0.3,0,0.5-0.1,0.7-0.2
		c0.2-0.1,0.3-0.3,0.4-0.5c0.1-0.2,0.2-0.4,0.2-0.6c0-0.1,0-0.2,0-0.4c0-0.1,0-0.2,0-0.4c0-0.5-0.1-0.9-0.3-1.2
		c-0.2-0.3-0.6-0.5-1.1-0.5c-0.5,0-0.8,0.2-1.1,0.5C452.1,7.4,452,7.7,452,8.2z"/>
	<path d="M463.1,5.5v5.2c0,0.1,0,0.2,0,0.3c0,0.1,0,0.2,0,0.3c0,0.2-0.1,0.4-0.1,0.6c-0.1,0.4-0.3,0.7-0.5,1
		c-0.2,0.3-0.5,0.5-0.9,0.7c-0.4,0.2-0.9,0.3-1.5,0.3c-0.6,0-1.2-0.1-2-0.4l0.1-1.3c0.2,0.1,0.5,0.2,0.8,0.3
		c0.3,0.1,0.6,0.2,0.8,0.2c0.4,0,0.7-0.1,1-0.2c0.2-0.1,0.4-0.3,0.5-0.5c0.1-0.2,0.2-0.4,0.2-0.7c0-0.1,0-0.3,0-0.4
		c0-0.1,0-0.3,0-0.4h0c-0.1,0.3-0.4,0.5-0.7,0.6c-0.3,0.2-0.7,0.3-1.1,0.3c-0.8,0-1.4-0.3-1.8-0.9c-0.4-0.6-0.6-1.2-0.5-2
		c0-0.7,0.2-1.4,0.6-2c0.4-0.6,1-0.9,1.9-1c0.8,0,1.3,0.3,1.8,0.9h0V5.5H463.1z M460.3,10.1c0.5,0,0.8-0.2,1-0.5
		c0.2-0.3,0.3-0.7,0.3-1.2c0-0.5-0.1-0.9-0.3-1.3c-0.2-0.3-0.5-0.5-1-0.5c-0.5,0-0.9,0.2-1,0.6c-0.2,0.4-0.3,0.8-0.3,1.2
		c0,0.4,0.1,0.8,0.3,1.2c0.1,0.2,0.3,0.3,0.4,0.4C459.9,10,460.1,10.1,460.3,10.1z"/>
	<path d="M464.8,3h1.5v1.4h-1.5V3z M464.8,5.5h1.5v5.7h-1.5V5.5z"/>
	<path d="M472.6,10.9c-0.5,0.3-1.2,0.5-2,0.5c-2,0-3-1-3-3c0-0.9,0.2-1.6,0.7-2.2c0.5-0.6,1.1-0.9,2-0.9c1,0,1.8,0.3,2.2,1
		c0.4,0.6,0.6,1.5,0.6,2.5h-4c0,0.5,0.2,0.8,0.5,1.1c0.3,0.3,0.7,0.4,1.1,0.4c0.4,0,0.7-0.1,1-0.2c0.3-0.1,0.6-0.2,0.9-0.4V10.9z
		 M471.6,7.8c0-0.4-0.1-0.7-0.3-0.9c-0.2-0.3-0.5-0.4-0.9-0.4c-0.4,0-0.7,0.1-0.9,0.4c-0.2,0.3-0.3,0.6-0.4,1H471.6z"/>
	<path d="M477.8,3.4h2.5l1.9,5.9h0l1.9-5.9h2.5v7.8H485V4.8h0l-2.1,6.4h-1.5l-2.1-6.4l0,0v6.4h-1.5V3.4z"/>
	<path d="M488.5,3.4h4.6v1.2h-3v1.9h2.8v1.2H490V10h3.1v1.2h-4.6V3.4z"/>
	<path d="M496.3,4.7H494V3.4h6v1.2h-2.2v6.6h-1.6V4.7z"/>
	<path d="M502.6,3.4h1.8l3.1,7.8h-1.7L505,9.4h-3.2l-0.7,1.8h-1.6L502.6,3.4z M503.4,5L503.4,5l-1.1,3.2h2.3L503.4,5z"/>
	<path d="M512.7,4.9c-0.5-0.2-1-0.3-1.6-0.3c-0.1,0-0.3,0-0.4,0c-0.1,0-0.3,0.1-0.4,0.2c-0.1,0.1-0.2,0.2-0.3,0.3
		c-0.1,0.1-0.1,0.3-0.1,0.5c0,0.2,0.1,0.3,0.2,0.4c0.1,0.1,0.2,0.2,0.4,0.3c0.1,0,0.2,0.1,0.3,0.1c0.1,0,0.2,0.1,0.3,0.1
		c0.1,0,0.2,0.1,0.3,0.1l0.3,0.1c0.2,0.1,0.4,0.2,0.6,0.3c0.2,0.1,0.4,0.3,0.5,0.4c0.1,0.1,0.2,0.2,0.2,0.3c0.1,0.1,0.1,0.2,0.2,0.3
		c0.1,0.2,0.1,0.5,0.1,0.9c0,0.8-0.3,1.4-0.9,1.8c-0.6,0.4-1.2,0.5-2.1,0.5c-0.2,0-0.4,0-0.6,0c-0.2,0-0.3,0-0.5-0.1
		c-0.1,0-0.3-0.1-0.5-0.1c-0.2,0-0.3-0.1-0.5-0.1l0.1-1.4c0.5,0.3,1.1,0.5,1.8,0.5c0.3,0,0.6-0.1,0.9-0.2c0.3-0.2,0.4-0.4,0.5-0.8
		c0-0.2,0-0.3-0.1-0.5c-0.1-0.1-0.2-0.2-0.4-0.3c-0.2-0.1-0.4-0.2-0.6-0.3c-0.2-0.1-0.4-0.2-0.6-0.3c-0.1,0-0.2-0.1-0.3-0.1
		s-0.2-0.1-0.3-0.2c-0.2-0.1-0.4-0.3-0.6-0.4c-0.1-0.1-0.2-0.2-0.2-0.3c-0.1-0.1-0.1-0.2-0.2-0.3c-0.1-0.2-0.2-0.5-0.2-0.8
		c0-0.9,0.3-1.5,0.9-1.9c0.5-0.3,1.2-0.5,1.9-0.5c0.7,0,1.3,0.1,1.9,0.3L512.7,4.9z"/>
</g>
</svg>
