{
    "modules": [
        {
            "config": {
                "position": [
                    662,
                    20
                ]
            },
            "name": "New Model Object",
            "value": {
                "actionGroup": {
                    "_default0_list": true,
                    "_default1_show": false,
                    "_default2_new_create": true,
                    "_default3_edit_update": true,
                    "_default4_delete": false,
                    "customActions": []
                },
                "name": "PostIt",
                "objectsettings": {
                    "addDeletedField": true,
                    "addHiddenField": true,
                    "addStarttimeEndtimeFields": true,
                    "aggregateRoot": true,
                    "categorizable": false,
                    "description": "",
                    "mapToTable": "",
                    "parentClass": "",
                    "sorting": true,
                    "type": "Entity",
                    "uid": "1089956892261"
                },
                "propertyGroup": {
                    "properties": [
                        {
                            "allowedFileTypes": "",
                            "maxItems": "1",
                            "propertyDescription": "",
                            "propertyIsExcludeField": false,
                            "propertyIsRequired": true,
                            "propertyName": "titel",
                            "propertyType": "String",
                            "uid": "882683890829"
                        },
                        {
                            "allowedFileTypes": "",
                            "maxItems": "1",
                            "propertyDescription": "",
                            "propertyIsExcludeField": false,
                            "propertyIsRequired": false,
                            "propertyName": "bild",
                            "propertyType": "Image",
                            "uid": "1323989408174"
                        },
                        {
                            "allowedFileTypes": "",
                            "maxItems": "1",
                            "propertyDescription": "",
                            "propertyIsExcludeField": false,
                            "propertyIsRequired": true,
                            "propertyName": "nachricht",
                            "propertyType": "RichText",
                            "uid": "1437862028072"
                        }
                    ]
                },
                "relationGroup": {
                    "relations": []
                }
            }
        }
    ],
    "properties": {
        "backendModules": [],
        "description": "",
        "emConf": {
            "category": "plugin",
            "custom_category": "",
            "dependsOn": "typo3 => 6.2\n",
            "disableLocalization": false,
            "disableVersioning": false,
            "sourceLanguage": "de",
            "state": "alpha",
            "targetVersion": "6.2",
            "version": "0.0.2"
        },
        "extensionKey": "metaspostit",
        "name": "MetasPostit",
        "originalExtensionKey": "metaspostit",
        "persons": [],
        "plugins": [
            {
                "actions": {
                    "controllerActionCombinations": "",
                    "noncacheableActions": "",
                    "switchableActions": ""
                },
                "key": "metaspostit",
                "name": "Metaspostit"
            }
        ],
        "vendorName": "Sesamnet"
    },
    "wires": [],
    "log": {
        "last_modified": "2015-09-22 09:50",
        "extension_builder_version": "6.2.0",
        "be_user": " (1)"
    }
}